"3","11","1","2015-06-15 11:48:28","2015-06-15 11:48:28","1","alaska",NULL,"admin","admin"
"4","27","2","2015-06-15 13:51:44","2015-06-18 10:04:02","1","DESSERTS PLUS, INC.",NULL,"admin","admin"
"5","36","3","2015-06-15 14:15:07","2015-06-15 14:15:07","1","GLOCKS",NULL,"admin","admin"
"6","21","3","2015-06-15 14:15:07","2015-06-15 14:15:07","1","CLARMIL",NULL,"admin","admin"
"7","9","3","2015-06-15 14:15:07","2015-06-15 14:15:07","1","ALL FRESH",NULL,"admin","admin"
"8","31","3","2015-06-15 14:15:07","2015-06-15 14:15:07","1","EARTHGRAIN",NULL,"admin","admin"
"9","4","3","2015-06-15 14:15:07","2015-06-15 14:15:07","1","DOUGHBAKE",NULL,"admin","admin"
"10","70","3","2015-06-15 14:15:07","2015-06-15 14:15:07","1","RICHBAKE",NULL,"admin","admin"
"11","41","4","2015-06-15 14:25:38","2015-06-15 14:25:38","1","JBC",NULL,"admin","admin"
"12","36","4","2015-06-15 14:25:38","2015-06-15 14:25:38","1","Glocks",NULL,"admin","admin"
"13","37","4","2015-06-15 14:25:38","2015-06-15 14:25:38","1","Grand Alpha",NULL,"admin","admin"
"14","54","5","2015-06-15 14:28:20","2015-06-15 14:28:20","1","Multirich",NULL,"admin","admin"
"15","36","6","2015-06-15 14:33:22","2015-06-15 14:33:22","1","Glocks",NULL,"admin","admin"
"16","31","6","2015-06-15 14:33:22","2015-06-15 14:33:22","1","Earthgrain",NULL,"admin","admin"
"17","9","6","2015-06-15 14:33:22","2015-06-15 14:33:22","1","All Fresh",NULL,"admin","admin"
"18","21","6","2015-06-15 14:33:22","2015-06-15 14:33:22","1","Clarmil",NULL,"admin","admin"
"19","4","6","2015-06-15 14:33:22","2015-06-15 14:33:22","1","Doughbake",NULL,"admin","admin"
"20","19","6","2015-06-15 14:33:22","2015-06-15 14:33:22","1","Caramel Pearl",NULL,"admin","admin"
"21","73","6","2015-06-15 14:33:22","2015-06-15 14:33:22","1","Suncrest",NULL,"admin","admin"
"22","54","6","2015-06-15 14:33:22","2015-06-15 14:33:22","1","Multirich",NULL,"admin","admin"
"23","75","6","2015-06-15 14:33:22","2015-06-15 14:33:22","1","SPI",NULL,"admin","admin"
"24","51","6","2015-06-15 14:33:22","2015-06-15 14:33:22","1","Monde",NULL,"admin","admin"
"25","51","7","2015-06-15 14:37:46","2015-06-15 14:37:46","1","Monde",NULL,"admin","admin"
"26","36","7","2015-06-15 14:37:46","2015-06-15 14:37:46","1","Glocks",NULL,"admin","admin"
"27","9","7","2015-06-15 14:37:46","2015-06-15 14:37:46","1","All Fresh",NULL,"admin","admin"
"28","21","7","2015-06-15 14:37:46","2015-06-15 14:37:46","1","Clarmil",NULL,"admin","admin"
"29","4","7","2015-06-15 14:37:46","2015-06-15 14:37:46","1","Doughbake",NULL,"admin","admin"
"30","31","7","2015-06-15 14:37:46","2015-06-15 14:37:46","1","Earthgrain",NULL,"admin","admin"
"32","40","7","2015-06-15 14:37:46","2015-06-15 14:37:46","1","Harvest Wheat",NULL,"admin","admin"
"33","28","8","2015-06-15 14:42:02","2015-06-15 14:42:02","1","Del Monte",NULL,"admin","admin"
"34","117","8","2015-06-15 14:42:02","2015-06-15 14:42:02","1","Pinnacle",NULL,"admin","admin"
"35","110","8","2015-06-15 14:42:02","2015-06-15 14:42:02","1","Newly Weds",NULL,"admin","admin"
"36","34","8","2015-06-15 14:42:02","2015-06-15 14:42:02","1","Flavors Phils",NULL,"admin","admin"
"37","85","9","2015-06-15 14:44:32","2015-06-15 14:44:32","1","WL",NULL,"admin","admin"
"38","51","9","2015-06-15 14:44:32","2015-06-15 14:44:32","1","Monde",NULL,"admin","admin"
"39","56","9","2015-06-15 14:44:32","2015-06-15 14:44:32","1","MY",NULL,"admin","admin"
"40","63","9","2015-06-15 14:44:32","2015-06-15 14:44:32","1","Pampanga's Best",NULL,"admin","admin"
"41","110","9","2015-06-15 14:44:32","2015-06-15 14:44:32","1","Newly Weds",NULL,"admin","admin"
"42","68","9","2015-06-15 14:44:32","2015-06-15 14:44:32","1","Ramfoods",NULL,"admin","admin"
"43","34","9","2015-06-15 14:44:32","2015-06-15 14:44:32","1","Flavors Phils",NULL,"admin","admin"
"44","68","8","2015-06-15 14:46:46","2015-06-15 14:46:46","1","Ramfoods",NULL,"admin","admin"
"45","9","10","2015-06-15 14:52:13","2015-06-15 14:52:13","1","All Fresh",NULL,"admin","admin"
"46","21","10","2015-06-15 14:52:13","2015-06-15 14:52:13","1","Clarmil",NULL,"admin","admin"
"47","4","10","2015-06-15 14:52:13","2015-06-15 14:52:13","1","Doughbake",NULL,"admin","admin"
"48","31","10","2015-06-15 14:52:13","2015-06-15 14:52:13","1","Earthgrain",NULL,"admin","admin"
"49","36","10","2015-06-15 14:52:13","2015-06-15 14:52:13","1","Glocks",NULL,"admin","admin"
"50","40","10","2015-06-15 14:52:13","2015-06-15 14:52:13","1","Harvest Wheat",NULL,"admin","admin"
"51","85","10","2015-06-15 14:52:13","2015-06-15 14:52:13","1","WL",NULL,"admin","admin"
"52","83","11","2015-06-15 15:07:23","2015-06-15 15:07:23","1","TJN",NULL,"admin","admin"
"53","66","11","2015-06-15 15:07:23","2015-06-15 15:07:23","1","Puratos",NULL,"admin","admin"
"54","72","11","2015-06-15 15:07:23","2015-06-15 15:07:23","1","RFM",NULL,"admin","admin"
"55","60","11","2015-06-15 15:07:23","2015-06-15 15:07:23","1","Nestle",NULL,"admin","admin"
"56","89","11","2015-06-15 15:07:23","2015-06-15 15:07:23","1","Unilever",NULL,"admin","admin"
"57","51","12","2015-06-15 15:10:32","2015-06-15 15:10:32","1","Monde",NULL,"admin","admin"
"58","54","12","2015-06-15 15:10:32","2015-06-15 15:10:32","1","Multirich",NULL,"admin","admin"
"59","117","12","2015-06-15 15:10:32","2015-06-15 15:10:32","1","Pinnacle",NULL,"admin","admin"
"60","48","12","2015-06-15 15:10:32","2015-06-15 15:10:32","1","Magnolia",NULL,"admin","admin"
"61","41","12","2015-06-15 15:10:32","2015-06-15 15:10:32","1","JBC",NULL,"admin","admin"
"62","75","12","2015-06-15 15:10:32","2015-06-15 15:10:32","1","SPI",NULL,"admin","admin"
"63","87","12","2015-06-15 15:10:32","2015-06-15 15:10:32","1","Zesto",NULL,"admin","admin"
"64","75","13","2015-06-15 15:11:24","2015-06-15 15:11:24","1","SPI",NULL,"admin","admin"
"65","30","14","2015-06-15 15:16:10","2015-06-15 15:16:10","1","Delfi",NULL,"admin","admin"
"66","73","14","2015-06-15 15:16:10","2015-06-15 15:16:10","1","Suncrest",NULL,"admin","admin"
"67","54","14","2015-06-15 15:16:10","2015-06-15 15:16:10","1","Multirich",NULL,"admin","admin"
"68","118","6","2015-06-15 15:17:19","2015-06-15 15:17:19","1","Rebisco",NULL,"admin","admin"
"69","86","6","2015-06-15 15:17:38","2015-06-15 15:17:38","1","URC",NULL,"admin","admin"
"70","118","7","2015-06-15 15:18:16","2015-06-15 15:18:16","1","Rebisco",NULL,"admin","admin"
"71","130","10","2015-06-15 15:18:56","2015-06-15 15:18:56","1","Doxo",NULL,"admin","admin"
"72","118","12","2015-06-15 15:20:08","2015-06-15 15:20:08","1","Rebisco",NULL,"admin","admin"
"73","118","13","2015-06-15 15:20:51","2015-06-15 15:20:51","1","Rebisco",NULL,"admin","admin"
"74","73","15","2015-06-15 15:22:11","2015-06-15 15:22:11","1","Suncrest",NULL,"admin","admin"
"75","54","15","2015-06-15 15:22:11","2015-06-15 15:22:11","1","Multirich",NULL,"admin","admin"
"76","51","16","2015-06-15 15:32:24","2015-06-15 15:32:24","1","Monde",NULL,"admin","admin"
"77","51","17","2015-06-15 15:36:02","2015-06-15 15:36:02","1","Monde",NULL,"admin","admin"
"78","12","17","2015-06-15 15:36:02","2015-06-15 15:36:02","1","Asahi",NULL,"admin","admin"
"79","85","17","2015-06-15 15:36:02","2015-06-15 15:36:02","1","WL",NULL,"admin","admin"
"80","88","17","2015-06-15 15:36:02","2015-06-15 15:36:02","1","Zenith",NULL,"admin","admin"
"88","16","19","2015-06-15 15:43:50","2015-06-15 15:43:50","1","Big E",NULL,"admin","admin"
"89","36","19","2015-06-15 15:43:50","2015-06-15 15:43:50","1","Glocks",NULL,"admin","admin"
"90","60","19","2015-06-15 15:43:50","2015-06-15 15:43:50","1","Nestle",NULL,"admin","admin"
"91","55","19","2015-06-15 15:43:50","2015-06-15 15:43:50","1","Mondelez",NULL,"admin","admin"
"92","89","19","2015-06-15 15:43:50","2015-06-15 15:43:50","1","Unilever",NULL,"admin","admin"
"93","57","12","2015-06-15 16:16:28","2015-06-15 16:16:28","1","OMSI",NULL,"admin","admin"
"94","40","3","2015-06-16 12:25:50","2015-06-16 12:25:50","1","Harvest Wheat",NULL,"admin","admin"
"95","51","20","2015-06-16 12:28:11","2015-06-16 12:28:11","1","Monde Nissin",NULL,"admin","admin"
"96","36","21","2015-06-16 12:57:36","2015-06-16 12:57:36","1","Goldilocks",NULL,"admin","admin"
"97","9","21","2015-06-16 12:57:36","2015-06-16 12:57:36","1","All Fresh",NULL,"admin","admin"
"98","21","21","2015-06-16 12:57:36","2015-06-16 12:57:36","1","Clarmil",NULL,"admin","admin"
"99","4","21","2015-06-16 12:57:36","2015-06-16 12:57:36","1","Doughbake",NULL,"admin","admin"
"100","31","21","2015-06-16 12:57:36","2015-06-16 12:57:36","1","Earth Grain",NULL,"admin","admin"
"101","40","21","2015-06-16 12:57:36","2015-06-16 12:57:36","1","Harvest Wheat",NULL,"admin","admin"
"102","70","21","2015-06-16 12:57:36","2015-06-16 12:57:36","1","Richbake",NULL,"admin","admin"
"103","73","22","2015-06-16 13:08:35","2015-06-16 13:08:35","1","Suncrest",NULL,"admin","admin"
"104","86","23","2015-06-16 13:13:13","2015-06-16 13:13:13","1","URC",NULL,"admin","admin"
"105","36","23","2015-06-16 13:13:13","2015-06-16 13:13:13","1","Goldilocks",NULL,"admin","admin"
"106","9","23","2015-06-16 13:13:13","2015-06-16 13:13:13","1","All Fresh",NULL,"admin","admin"
"107","21","23","2015-06-16 13:13:13","2015-06-16 13:13:13","1","Clarmil",NULL,"admin","admin"
"108","4","23","2015-06-16 13:13:13","2015-06-16 13:13:13","1","Doughbake",NULL,"admin","admin"
"109","31","23","2015-06-16 13:13:13","2015-06-16 13:13:13","1","Earth Grain",NULL,"admin","admin"
"110","40","23","2015-06-16 13:13:13","2015-06-16 13:13:13","1","Harvest Wheat",NULL,"admin","admin"
"111","70","23","2015-06-16 13:13:13","2015-06-16 13:13:13","1","Richbake",NULL,"admin","admin"
"112","36","24","2015-06-16 13:19:03","2015-06-16 13:19:03","1","Goldilocks",NULL,"admin","admin"
"113","36","25","2015-06-16 13:22:37","2015-06-16 13:22:37","1","Goldilocks",NULL,"admin","admin"
"114","9","25","2015-06-16 13:22:37","2015-06-16 13:22:37","1","All Fresh",NULL,"admin","admin"
"115","21","25","2015-06-16 13:22:37","2015-06-16 13:22:37","1","Clarmil",NULL,"admin","admin"
"116","4","25","2015-06-16 13:22:37","2015-06-16 13:22:37","1","Doughbake",NULL,"admin","admin"
"117","31","25","2015-06-16 13:22:37","2015-06-16 13:22:37","1","Earth Grain",NULL,"admin","admin"
"118","40","25","2015-06-16 13:22:37","2015-06-16 13:22:37","1","Harvest Wheat",NULL,"admin","admin"
"119","70","25","2015-06-16 13:22:37","2015-06-16 13:22:37","1","Richbake",NULL,"admin","admin"
"120","51","26","2015-06-16 13:29:28","2015-06-16 13:29:28","1","Monde Nissin",NULL,"admin","admin"
"121","54","27","2015-06-16 13:30:22","2015-06-16 13:30:22","1","Multirich",NULL,"admin","admin"
"122","73","28","2015-06-16 13:31:53","2015-06-16 13:31:53","1","Suncrest",NULL,"admin","admin"
"123","118","28","2015-06-16 13:31:53","2015-06-16 13:31:53","1","Rebisco",NULL,"admin","admin"
"124","119","28","2015-06-16 13:31:53","2015-06-16 13:31:53","1","BBFI",NULL,"admin","admin"
"125","120","28","2015-06-16 13:31:53","2015-06-16 13:31:53","1","FBC",NULL,"admin","admin"
"126","75","29","2015-06-16 13:42:32","2015-06-16 13:42:32","1","SPI",NULL,"admin","admin"
"127","36","29","2015-06-16 13:42:32","2015-06-16 13:42:32","1","Goldilocks",NULL,"admin","admin"
"128","118","30","2015-06-16 13:48:26","2015-06-16 13:48:26","1","Rebisco",NULL,"admin","admin"
"129","36","30","2015-06-16 13:48:26","2015-06-16 13:48:26","1","Goldilocks",NULL,"admin","admin"
"130","9","30","2015-06-16 13:48:26","2015-06-16 13:48:26","1","All Fresh",NULL,"admin","admin"
"131","21","30","2015-06-16 13:48:26","2015-06-16 13:48:26","1","Clarmil",NULL,"admin","admin"
"132","4","30","2015-06-16 13:48:26","2015-06-16 13:48:26","1","Doughbake",NULL,"admin","admin"
"133","31","30","2015-06-16 13:48:26","2015-06-16 13:48:26","1","Earth Grain",NULL,"admin","admin"
"134","40","30","2015-06-16 13:48:26","2015-06-16 13:48:26","1","Harvest Wheat",NULL,"admin","admin"
"135","70","30","2015-06-16 13:48:26","2015-06-16 13:48:26","1","Richbake",NULL,"admin","admin"
"136","54","31","2015-06-16 13:49:46","2015-06-16 13:49:46","1","Multirich",NULL,"admin","admin"
"137","51","31","2015-06-16 13:49:46","2015-06-16 13:49:46","1","Monde Nissin",NULL,"admin","admin"
"138","118","32","2015-06-16 13:54:04","2015-06-16 13:54:04","1","Rebisco",NULL,"admin","admin"
"139","73","32","2015-06-16 13:54:04","2015-06-16 13:54:04","1","Suncrest",NULL,"admin","admin"
"140","54","32","2015-06-16 13:54:04","2015-06-16 13:54:04","1","Multirich",NULL,"admin","admin"
"141","36","32","2015-06-16 13:54:04","2015-06-16 13:54:04","1","Goldilocks",NULL,"admin","admin"
"142","21","32","2015-06-16 13:54:04","2015-06-16 13:54:04","1","Clarmil",NULL,"admin","admin"
"143","9","32","2015-06-16 13:54:04","2015-06-16 13:54:04","1","All Fresh",NULL,"admin","admin"
"144","4","32","2015-06-16 13:54:04","2015-06-16 13:54:04","1","Doughbake",NULL,"admin","admin"
"145","70","32","2015-06-16 13:54:04","2015-06-16 13:54:04","1","Richbake",NULL,"admin","admin"
"146","51","33","2015-06-16 13:55:08","2015-06-16 13:55:08","1","Monde Nissin",NULL,"admin","admin"
"147","36","34","2015-06-16 13:57:40","2015-06-16 13:57:40","1","Goldilocks",NULL,"admin","admin"
"148","9","34","2015-06-16 13:57:40","2015-06-16 13:57:40","1","All Fresh",NULL,"admin","admin"
"149","21","34","2015-06-16 13:57:40","2015-06-16 13:57:40","1","Clarmil",NULL,"admin","admin"
"150","4","34","2015-06-16 13:57:40","2015-06-16 13:57:40","1","Doughbake",NULL,"admin","admin"
"151","31","34","2015-06-16 13:57:40","2015-06-16 13:57:40","1","Earth Grain",NULL,"admin","admin"
"152","40","34","2015-06-16 13:57:40","2015-06-16 13:57:40","1","Harvest Wheat",NULL,"admin","admin"
"153","70","34","2015-06-16 13:57:40","2015-06-16 13:57:40","1","Richbake",NULL,"admin","admin"
"154","157","35","2015-06-16 14:00:34","2015-06-16 14:00:34","1","Doughnut People",NULL,"admin","admin"
"155","83","36","2015-06-16 14:02:03","2015-06-16 14:02:03","1","TJN",NULL,"admin","admin"
"156","118","37","2015-06-16 14:03:30","2015-06-16 14:03:30","1","Rebisco",NULL,"admin","admin"
"157","73","37","2015-06-16 14:03:30","2015-06-16 14:03:30","1","Suncrest",NULL,"admin","admin"
"158","54","37","2015-06-16 14:03:30","2015-06-16 14:03:30","1","Multirich",NULL,"admin","admin"
"159","51","38","2015-06-16 14:05:43","2015-06-16 14:05:43","1","Monde",NULL,"admin","admin"
"160","51","39","2015-06-16 14:06:07","2015-06-16 14:06:07","1","Monde Nissin",NULL,"admin","admin"
"161","78","40","2015-06-16 14:09:53","2015-06-16 14:09:53","1","Sysu",NULL,"admin","admin"
"162","78","41","2015-06-16 14:12:31","2015-06-16 14:12:31","1","Sysu",NULL,"admin","admin"
"163","36","42","2015-06-16 14:19:52","2015-06-16 14:19:52","1","Goldilocks",NULL,"admin","admin"
"164","28","43","2015-06-16 14:26:19","2015-06-16 15:06:02","1","DMPI","Del Monte","admin","admin"
"165","118","44","2015-06-16 14:33:08","2015-06-16 14:33:08","1","Rebisco",NULL,"admin","admin"
"166","9","44","2015-06-16 14:33:08","2015-06-16 14:33:08","1","All Fresh",NULL,"admin","admin"
"167","21","44","2015-06-16 14:33:08","2015-06-16 14:33:08","1","Clarmil",NULL,"admin","admin"
"168","4","44","2015-06-16 14:33:08","2015-06-16 14:33:08","1","Doughbake",NULL,"admin","admin"
"169","31","44","2015-06-16 14:33:08","2015-06-16 14:33:08","1","Earth Grain",NULL,"admin","admin"
"170","36","44","2015-06-16 14:33:08","2015-06-16 14:33:08","1","Goldilocks",NULL,"admin","admin"
"171","40","44","2015-06-16 14:33:08","2015-06-16 14:33:08","1","Harvest Wheat",NULL,"admin","admin"
"172","70","44","2015-06-16 14:33:08","2015-06-16 14:33:08","1","Richbake",NULL,"admin","admin"
"173","48","45","2015-06-16 14:37:13","2015-06-16 14:37:13","1","Magnolia",NULL,"admin","admin"
"174","142","46","2015-06-16 14:40:04","2015-06-16 14:40:04","1","Oleo",NULL,"admin","admin"
"175","254","47","2015-06-16 14:41:55","2015-06-16 14:41:55","1","Mt. Makiling",NULL,"admin","admin"
"176","48","48","2015-06-16 14:47:29","2015-06-16 14:47:29","1","Magnolia",NULL,"admin","admin"
"177","80","49","2015-06-16 15:00:01","2015-06-16 15:07:53","1","SMDC","Snow Mountain","admin","admin"
"178","51","50","2015-06-16 15:01:59","2015-06-16 15:01:59","1","Monde Nissin",NULL,"admin","admin"
"179","73","50","2015-06-16 15:01:59","2015-06-16 15:01:59","1","Suncrest",NULL,"admin","admin"
"180","80","51","2015-06-16 15:04:04","2015-06-16 15:04:04","1","SMDC","Snow Mountain","admin","admin"
"181","86","52","2015-06-16 15:11:58","2015-06-16 15:11:58","1","URC",NULL,"admin","admin"
"182","45","53","2015-06-16 15:16:31","2015-06-16 15:16:31","1","Liberty",NULL,"admin","admin"
"183","86","54","2015-06-16 15:18:35","2015-06-16 15:18:35","1","URC",NULL,"admin","admin"
"184","48","55","2015-06-16 15:22:19","2015-06-16 15:22:19","1","Magnolia",NULL,"admin","admin"
"185","16","56","2015-06-16 15:52:47","2015-06-16 15:52:47","1","Big E",NULL,"admin","admin"
"186","51","57","2015-06-16 15:59:06","2015-06-16 15:59:06","1","Monde",NULL,"admin","admin"
"187","16","58","2015-06-16 16:02:03","2015-06-16 16:02:03","1","Big E",NULL,"admin","admin"
"188","51","59","2015-06-16 16:04:58","2015-06-16 16:04:58","1","Monde",NULL,"admin","admin"
"189","85","60","2015-06-16 16:08:52","2015-06-16 16:08:52","1","WL",NULL,"admin","admin"
"190","41","61","2015-06-16 16:12:47","2015-06-16 16:12:47","1","JBC",NULL,"admin","admin"
"191","51","62","2015-06-16 16:19:29","2015-06-16 16:19:29","1","Monde",NULL,"admin","admin"
"192","11","63","2015-06-16 16:22:28","2015-06-16 16:22:28","1","AMC","Alaska","admin","admin"
"193","11","64","2015-06-16 16:23:57","2015-06-16 16:23:57","1","AMC","Alaska","admin","admin"
"194","225","65","2015-06-16 16:27:19","2015-06-16 16:27:19","1","DOST",NULL,"admin","admin"
"195","74","66","2015-06-16 16:31:55","2015-06-16 16:31:55","1","Sucere",NULL,"admin","admin"
"196","38","67","2015-06-16 16:33:14","2015-06-16 16:33:14","1","Gardenia",NULL,"admin","admin"
"197","69","67","2015-06-16 16:33:14","2015-06-16 16:33:14","1","Renaissance",NULL,"admin","admin"
"198","83","67","2015-06-16 16:33:14","2015-06-16 16:33:14","1","TJN",NULL,"admin","admin"
"199","85","67","2015-06-16 16:33:14","2015-06-16 16:33:14","1","WL",NULL,"admin","admin"
"200","81","67","2015-06-16 16:33:14","2015-06-16 16:33:14","1","SFI",NULL,"admin","admin"
"201","91","68","2015-06-16 16:39:05","2015-06-16 16:39:05","1","ANI",NULL,"admin","admin"
"202","21","69","2015-06-16 16:41:03","2015-06-16 16:41:03","1","Clarmil",NULL,"admin","admin"
"203","4","69","2015-06-16 16:41:03","2015-06-16 16:41:03","1","Doughbake",NULL,"admin","admin"
"204","31","69","2015-06-16 16:41:03","2015-06-16 16:41:03","1","Earthgrain",NULL,"admin","admin"
"205","32","69","2015-06-16 16:41:03","2015-06-16 16:41:03","1","EK",NULL,"admin","admin"
"206","36","69","2015-06-16 16:41:03","2015-06-16 16:41:03","1","Glocks",NULL,"admin","admin"
"207","40","69","2015-06-16 16:41:03","2015-06-16 16:41:03","1","Harvest",NULL,"admin","admin"
"208","65","69","2015-06-16 16:41:03","2015-06-16 16:41:03","1","Unilab",NULL,"admin","admin"
"209","114","69","2015-06-16 16:41:03","2015-06-16 16:41:03","1","Valmarce",NULL,"admin","admin"
"210","41","69","2015-06-16 16:41:03","2015-06-16 16:41:03","1","JBC",NULL,"admin","admin"
"211","142","67","2015-06-16 16:42:55","2015-06-16 16:42:55","1","Oleo",NULL,"admin","admin"
"212","31","70","2015-06-16 16:49:01","2015-06-16 16:49:01","1","Earthgrain",NULL,"admin","admin"
"213","36","70","2015-06-16 16:49:01","2015-06-16 16:49:01","1","Glocks",NULL,"admin","admin"
"214","40","70","2015-06-16 16:49:01","2015-06-16 16:49:01","1","Harvest",NULL,"admin","admin"
"216","118","70","2015-06-16 16:49:01","2015-06-16 16:49:01","1","Rebisco",NULL,"admin","admin"
"218","83","70","2015-06-16 16:49:01","2015-06-16 16:49:01","1","TJN",NULL,"admin","admin"
"219","114","70","2015-06-16 16:49:01","2015-06-16 16:49:01","1","Valmarce",NULL,"admin","admin"
"220","75","71","2015-06-16 16:50:42","2015-06-16 16:50:42","1","SPI",NULL,"admin","admin"
"221","65","72","2015-06-16 16:52:38","2015-06-16 16:52:38","1","Unilab",NULL,"admin","admin"
"223","59","73","2015-06-16 16:54:31","2015-06-16 16:54:31","1","Nutri",NULL,"admin","admin"
"224","50","74","2015-06-16 16:55:38","2015-06-16 16:55:38","1","MFP",NULL,"admin","admin"
"225","54","75","2015-06-16 16:59:23","2015-06-16 16:59:23","1","Multirich",NULL,"admin","admin"
"226","118","75","2015-06-16 16:59:23","2015-06-16 16:59:23","1","Rebisco",NULL,"admin","admin"
"227","75","75","2015-06-16 16:59:23","2015-06-16 16:59:23","1","SPI",NULL,"admin","admin"
"228","85","75","2015-06-16 16:59:23","2015-06-16 16:59:23","1","WL",NULL,"admin","admin"
"229","36","76","2015-06-16 17:00:31","2015-06-16 17:00:31","1","Glocks",NULL,"admin","admin"
"230","51","77","2015-06-16 17:03:53","2015-06-16 17:03:53","1","Monde",NULL,"admin","admin"
"231","142","78","2015-06-16 17:06:09","2015-06-16 17:06:09","1","Oleo",NULL,"admin","admin"
"232","62","79","2015-06-16 17:07:09","2015-06-16 17:07:09","1","Pepsi",NULL,"admin","admin"
"233","36","80","2015-06-16 17:09:25","2015-06-16 17:09:25","1","Glocks",NULL,"admin","admin"
"234","9","19","2015-06-16 17:21:30","2015-06-16 17:21:30","1","All Fresh",NULL,"admin","admin"
"235","21","19","2015-06-16 17:21:47","2015-06-16 17:21:47","1","Clarmil",NULL,"admin","admin"
"236","4","19","2015-06-16 17:22:00","2015-06-16 17:22:00","1","Doughbake",NULL,"admin","admin"
"237","31","19","2015-06-16 17:22:17","2015-06-16 17:22:17","1","Earth Grain",NULL,"admin","admin"
"238","40","19","2015-06-16 17:22:35","2015-06-16 17:22:35","1","Harvest Wheat",NULL,"admin","admin"
"239","70","19","2015-06-16 17:22:55","2015-06-16 17:22:55","1","Rich Bake",NULL,"admin","admin"
"240","70","69","2015-06-16 17:27:58","2015-06-16 17:27:58","1","Richbake",NULL,"admin","admin"
"241","9","70","2015-06-16 17:28:36","2015-06-16 17:28:36","1","All Fresh",NULL,"admin","admin"
"242","4","70","2015-06-16 17:28:52","2015-06-16 17:28:52","1","Doughbake",NULL,"admin","admin"
"243","70","70","2015-06-16 17:29:15","2015-06-16 17:29:15","1","Richbake",NULL,"admin","admin"
"244","21","76","2015-06-16 17:29:57","2015-06-16 17:29:57","1","Clarmil",NULL,"admin","admin"
"245","19","76","2015-06-16 17:30:11","2015-06-16 17:30:11","1","Caramel Pearl",NULL,"admin","admin"
"246","73","60","2015-06-16 17:31:48","2015-06-16 17:31:48","1","Suncrest",NULL,"admin","admin"
"247","54","60","2015-06-16 17:32:01","2015-06-16 17:32:01","1","Multirich",NULL,"admin","admin"
"248","81","55","2015-06-16 17:32:58","2015-06-16 17:32:58","1","SFI Multimix",NULL,"admin","admin"
"249","73","66","2015-06-16 17:44:42","2015-06-16 17:44:42","1","Suncrest",NULL,"admin","admin"
"250","54","66","2015-06-16 17:44:54","2015-06-16 17:44:54","1","Multirich",NULL,"admin","admin"
"251","117","66","2015-06-16 17:45:09","2015-06-16 17:45:09","1","Pinnacle",NULL,"admin","admin"
"252","73","62","2015-06-16 17:45:36","2015-06-16 17:45:36","1","Suncrest",NULL,"admin","admin"
"253","70","6","2015-06-16 17:48:02","2015-06-16 17:48:02","1","Richbake",NULL,"admin","admin"
"254","40","6","2015-06-16 17:48:17","2015-06-16 17:48:17","1","Harvest Wheat",NULL,"admin","admin"
"255","70","7","2015-06-16 17:51:18","2015-06-16 17:51:18","1","Richbake",NULL,"admin","admin"
"256","36","73","2015-06-16 17:56:35","2015-06-16 17:56:35","1","Goldilocks",NULL,"admin","admin"
"257","118","4","2015-06-16 17:57:15","2015-06-16 17:57:15","1","Rebisco",NULL,"admin","admin"
"258","54","4","2015-06-16 17:57:27","2015-06-16 17:57:27","1","Multirich",NULL,"admin","admin"
"259","75","4","2015-06-16 17:57:45","2015-06-16 17:57:45","1","SPI",NULL,"admin","admin"
"260","188","28","2015-06-17 15:07:05","2015-06-17 15:07:05","1","COG",NULL,"admin","admin"
"261","7","29","2015-06-17 15:07:46","2015-06-17 15:07:46","1","Annie Candy",NULL,"admin","admin"
"262","99","29","2015-06-17 15:08:13","2015-06-17 15:08:13","1","Bakerson",NULL,"admin","admin"
"263","103","29","2015-06-17 15:08:25","2015-06-17 15:08:25","1","Globake",NULL,"admin","admin"
"264","98","29","2015-06-17 15:08:38","2015-06-17 15:08:38","1","Hansbake",NULL,"admin","admin"
"265","104","29","2015-06-17 15:09:03","2015-06-17 15:09:03","1","Interbake",NULL,"admin","admin"
"266","105","29","2015-06-17 15:09:20","2015-06-17 15:09:20","1","Lartizan",NULL,"admin","admin"
"267","106","29","2015-06-17 15:09:47","2015-06-17 15:09:47","1","Qwik Bread",NULL,"admin","admin"
"268","100","29","2015-06-17 15:10:02","2015-06-17 15:10:02","1","Stanbake",NULL,"admin","admin"
"269","102","29","2015-06-17 15:10:19","2015-06-17 15:10:19","1","Teambake",NULL,"admin","admin"
"270","35","29","2015-06-17 15:10:32","2015-06-17 15:10:32","1","French Baker",NULL,"admin","admin"
"271","134","29","2015-06-17 15:10:52","2015-06-17 15:10:52","1","Jalroson",NULL,"admin","admin"
"272","272","31","2015-06-17 15:11:52","2015-06-18 12:09:35","1","Jameson",NULL,"admin","admin"
"273","42","32","2015-06-17 15:12:19","2015-06-17 15:12:19","1","KSK",NULL,"admin","admin"
"274","42","10","2015-06-17 15:12:41","2015-06-17 15:12:41","1","KSK",NULL,"admin","admin"
"275","7","33","2015-06-17 15:13:08","2015-06-17 15:13:08","1","Annie Candy",NULL,"admin","admin"
"277","49","46","2015-06-17 15:14:51","2015-06-17 15:14:51","1","Malabon",NULL,"admin","admin"
"278","99","70","2015-06-17 15:17:58","2015-06-17 15:17:58","1","Bakerson",NULL,"admin","admin"
"279","103","70","2015-06-17 15:18:11","2015-06-17 15:18:11","1","Globake",NULL,"admin","admin"
"280","98","70","2015-06-17 15:18:22","2015-06-17 15:18:22","1","Hansbake",NULL,"admin","admin"
"281","104","70","2015-06-17 15:18:36","2015-06-17 15:18:36","1","Interbake",NULL,"admin","admin"
"282","105","70","2015-06-17 15:18:46","2015-06-17 15:18:46","1","Lartizan",NULL,"admin","admin"
"283","106","70","2015-06-17 15:18:58","2015-06-17 15:18:58","1","Qwik Bread",NULL,"admin","admin"
"284","100","70","2015-06-17 15:19:09","2015-06-17 15:19:09","1","Stanbake",NULL,"admin","admin"
"285","102","70","2015-06-17 15:19:23","2015-06-17 15:19:23","1","Teambake",NULL,"admin","admin"
"286","35","70","2015-06-17 15:19:35","2015-06-17 15:19:35","1","French Baker",NULL,"admin","admin"
"287","89","70","2015-06-17 15:20:21","2015-06-17 15:20:21","1","Unilever",NULL,"admin","admin"
"288","114","67","2015-06-17 15:21:43","2015-06-17 15:21:43","1","valmarce",NULL,"admin","admin"
"289","162","67","2015-06-17 15:21:55","2015-06-17 15:21:55","1","Achievers",NULL,"admin","admin"
"290","49","56","2015-06-17 15:22:38","2015-06-17 15:22:38","1","Malabon",NULL,"admin","admin"
"291","272","55","2015-06-17 15:23:06","2015-06-17 15:23:06","1","Jameson's",NULL,"admin","admin"
"292","6","75","2015-06-17 15:24:57","2015-06-17 15:24:57","1","Alpha",NULL,"admin","admin"
"293","12","81","2015-06-17 15:53:07","2015-06-17 15:53:07","1","Asahi",NULL,"admin","admin"
"294","129","81","2015-06-17 15:53:07","2015-06-17 15:53:07","1","Century",NULL,"admin","admin"
"295","67","81","2015-06-17 15:53:07","2015-06-17 15:53:07","1","Purefoods",NULL,"admin","admin"
"296","53","81","2015-06-17 15:53:07","2015-06-17 15:53:07","1","MJB",NULL,"admin","admin"
"297","92","81","2015-06-17 15:53:07","2015-06-17 15:53:07","1","Aromatise",NULL,"admin","admin"
"298","64","81","2015-06-17 15:53:07","2015-06-17 15:53:07","1","Promeat",NULL,"admin","admin"
"299","108","81","2015-06-17 15:53:07","2015-06-17 15:53:07","1","King Sue",NULL,"admin","admin"
"300","6","81","2015-06-17 15:53:07","2015-06-17 15:53:07","1","Alpha Alleanza",NULL,"admin","admin"
"301","94","81","2015-06-17 15:53:07","2015-06-17 15:53:07","1","Bounty",NULL,"admin","admin"
"302","209","81","2015-06-17 15:53:07","2015-06-17 15:53:07","1","Monterey",NULL,"admin","admin"
"303","210","81","2015-06-17 15:53:07","2015-06-17 15:53:07","1","GFS",NULL,"admin","admin"
"304","23","82","2015-06-17 15:57:06","2015-06-17 15:57:06","1","Chowking",NULL,"admin","admin"
"305","88","82","2015-06-17 15:57:06","2015-06-17 15:57:06","1","Zenith",NULL,"admin","admin"
"306","20","82","2015-06-17 15:57:06","2015-06-17 15:57:06","1","CDO",NULL,"admin","admin"
"307","92","83","2015-06-17 16:02:33","2015-06-17 16:02:33","1","Aromatise",NULL,"admin","admin"
"308","129","83","2015-06-17 16:02:33","2015-06-17 16:02:33","1","Century",NULL,"admin","admin"
"309","92","84","2015-06-17 16:03:57","2015-06-17 16:03:57","1","Aromatise",NULL,"admin","admin"
"310","67","85","2015-06-17 16:05:49","2015-06-17 16:05:49","1","PUREFOODS",NULL,"admin","admin"
"311","129","86","2015-06-17 16:07:59","2015-06-17 16:07:59","1","Century",NULL,"admin","admin"
"312","67","87","2015-06-17 16:13:42","2015-06-17 16:13:42","1","PUREFOODS",NULL,"admin","admin"
"313","51","88","2015-06-17 16:16:13","2015-06-17 16:16:13","1","Monde",NULL,"admin","admin"
"314","51","89","2015-06-17 16:22:56","2015-06-17 16:22:56","1","Monde",NULL,"admin","admin"
"315","85","90","2015-06-17 16:25:00","2015-06-17 16:25:00","1","WL",NULL,"admin","admin"
"316","27","25","2015-06-18 10:28:27","2015-06-18 10:28:37","1","DESSERTS PLUS, INC.",NULL,"admin","admin"
"317","72","25","2015-06-18 11:34:39","2015-06-18 11:34:39","1","RFM",NULL,"admin","admin"
"318","66","27","2015-06-18 11:36:29","2015-06-18 11:36:29","1","Puratos",NULL,"admin","admin"
"319","167","28","2015-06-18 11:37:42","2015-06-18 11:37:42","1","Lala Foods",NULL,"admin","admin"
"320","27","28","2015-06-18 11:38:15","2015-06-18 11:38:15","1","Desserts Plus",NULL,"admin","admin"
"321","52","28","2015-06-18 11:46:39","2015-06-18 11:46:39","1","Mixplant",NULL,"admin","admin"
"322","137","29","2015-06-18 11:47:17","2015-06-18 11:47:17","1","Flavorcrest",NULL,"admin","admin"
"323","136","29","2015-06-18 11:47:41","2015-06-18 11:47:41","1","Cindys",NULL,"admin","admin"
"324","45","29","2015-06-18 11:49:37","2015-06-18 11:49:37","1","Liberty",NULL,"admin","admin"
"325","52","29","2015-06-18 11:50:17","2015-06-18 11:50:17","1","Mixplant",NULL,"admin","admin"
"326","142","29","2015-06-18 11:50:32","2015-06-18 11:50:32","1","Oleofats",NULL,"admin","admin"
"327","66","29","2015-06-18 11:50:47","2015-06-18 11:50:47","1","Puratos",NULL,"admin","admin"
"328","69","29","2015-06-18 11:51:05","2015-06-18 11:51:05","1","Renaissance",NULL,"admin","admin"
"329","72","29","2015-06-18 11:51:39","2015-06-18 11:51:39","1","RFM",NULL,"admin","admin"
"330","139","30","2015-06-18 11:52:27","2015-06-18 11:52:27","1","KFC",NULL,"admin","admin"
"331","47","30","2015-06-18 11:52:40","2015-06-18 11:52:40","1","Max",NULL,"admin","admin"
"332","142","30","2015-06-18 11:52:59","2015-06-18 11:52:59","1","Oleofats",NULL,"admin","admin"
"333","135","31","2015-06-18 12:11:26","2015-06-18 12:11:26","1","Arce Dairy",NULL,"admin","admin"
"334","66","31","2015-06-18 12:12:08","2015-06-18 12:12:08","1","Puratos",NULL,"admin","admin"
"335","52","32","2015-06-18 12:13:09","2015-06-18 12:13:09","1","Mixplant",NULL,"admin","admin"
"336","142","32","2015-06-18 12:13:26","2015-06-18 12:13:26","1","Oleofats",NULL,"admin","admin"
"337","66","32","2015-06-18 12:13:40","2015-06-18 12:13:40","1","Puratos",NULL,"admin","admin"
"338","22","19","2015-06-18 12:14:31","2015-06-18 12:14:31","1","Comfoods",NULL,"admin","admin"
"339","30","19","2015-06-18 12:14:53","2015-06-18 12:14:53","1","Delfi",NULL,"admin","admin"
"340","142","19","2015-06-18 12:15:21","2015-06-18 12:15:21","1","Oleofats",NULL,"admin","admin"
"341","69","19","2015-06-18 12:15:51","2015-06-18 12:15:51","1","Renaissance",NULL,"admin","admin"
"344","30","75","2015-06-18 12:19:03","2015-06-18 12:19:03","1","Delfi",NULL,"admin","admin"
"345","142","75","2015-06-18 12:19:29","2015-06-18 12:19:29","1","Oleofats",NULL,"admin","admin"
"346","82","45","2015-06-18 12:21:23","2015-06-18 12:21:23","1","Transasia",NULL,"admin","admin"
"347","82","46","2015-06-18 12:21:50","2015-06-18 12:21:50","1","Transasia",NULL,"admin","admin"
"348","27","12","2015-06-18 12:23:19","2015-06-18 12:23:19","1","Desserts Plus",NULL,"admin","admin"
"349","45","12","2015-06-18 12:23:32","2015-06-18 12:23:32","1","Liberty",NULL,"admin","admin"
"350","22","67","2015-06-18 12:27:37","2015-06-18 12:27:37","1","Comfoods",NULL,"admin","admin"
"352","60","67","2015-06-18 12:29:02","2015-06-18 12:29:02","1","Nestle",NULL,"admin","admin"
"353","135","70","2015-06-18 12:37:31","2015-06-18 12:37:31","1","Arce Dairy",NULL,"admin","admin"
"354","30","70","2015-06-18 12:39:35","2015-06-18 12:39:35","1","Delfi",NULL,"admin","admin"
"355","60","70","2015-06-18 12:40:41","2015-06-18 12:40:41","1","Nestle",NULL,"admin","admin"
"356","72","70","2015-06-18 12:41:01","2015-06-18 12:41:01","1","RFM",NULL,"admin","admin"
"357","257","70","2015-06-18 12:41:42","2015-06-18 12:41:42","1","Tinapayan",NULL,"admin","admin"
"358","33","70","2015-06-18 12:41:56","2015-06-18 12:41:56","1","ECC",NULL,"admin","admin"
"359","135","69","2015-06-18 12:43:29","2015-06-18 12:43:29","1","Arce Dairy",NULL,"admin","admin"
"360","22","69","2015-06-18 12:43:42","2015-06-18 12:43:42","1","Comfoods",NULL,"admin","admin"
"362","30","69","2015-06-18 12:46:03","2015-06-18 12:46:03","1","Delfi",NULL,"admin","admin"
"363","167","69","2015-06-18 12:46:25","2015-06-18 12:46:25","1","Lala",NULL,"admin","admin"
"364","52","69","2015-06-18 12:48:18","2015-06-18 12:48:18","1","Mixplant",NULL,"admin","admin"
"365","60","69","2015-06-18 12:49:20","2015-06-18 12:49:20","1","Nestle",NULL,"admin","admin"
"366","142","69","2015-06-18 12:49:52","2015-06-18 12:49:52","1","Oleofats",NULL,"admin","admin"
"367","66","69","2015-06-18 12:50:07","2015-06-18 12:50:07","1","Puratos",NULL,"admin","admin"
"368","257","69","2015-06-18 12:50:28","2015-06-18 12:50:28","1","Tinapayan",NULL,"admin","admin"
"369","257","25","2015-06-18 12:51:18","2015-06-18 12:51:18","1","Tinapayan",NULL,"admin","admin"
"370","142","60","2015-06-18 12:54:04","2015-06-18 12:54:04","1","Oleofats",NULL,"admin","admin"
"371","82","60","2015-06-18 12:54:16","2015-06-18 12:54:16","1","Transasia",NULL,"admin","admin"
"372","82","56","2015-06-18 12:56:13","2015-06-18 12:56:13","1","Transasia",NULL,"admin","admin"
"373","140","56","2015-06-18 12:59:46","2015-06-18 12:59:46","1","Minola",NULL,"admin","admin"
"374","142","56","2015-06-18 13:00:26","2015-06-18 13:00:26","1","Oleofats",NULL,"admin","admin"
"375","135","55","2015-06-18 13:01:20","2015-06-18 13:01:20","1","Arce Dairy",NULL,"admin","admin"
"376","142","58","2015-06-18 13:02:14","2015-06-18 13:02:14","1","Oleofats",NULL,"admin","admin"
"377","82","58","2015-06-18 13:02:27","2015-06-18 13:02:27","1","Transasia",NULL,"admin","admin"
"379","76","28","2015-06-18 13:07:15","2015-06-18 13:07:15","1","Stateline",NULL,"admin","admin"
"380","87","28","2015-06-18 13:07:36","2015-06-18 13:07:36","1","Zesto",NULL,"admin","admin"
"381","13","28","2015-06-18 13:08:56","2015-06-18 13:08:56","1","Advance Food",NULL,"admin","admin"
"382","157","28","2015-06-18 13:09:18","2015-06-18 13:09:18","1","The Doughnut People",NULL,"admin","admin"
"383","57","29","2015-06-18 13:10:29","2015-06-18 13:10:29","1","OMSI",NULL,"admin","admin"
"384","79","29","2015-06-18 13:11:25","2015-06-18 13:11:25","1","Snow Joe",NULL,"admin","admin"
"385","18","66","2015-06-18 13:11:32","2015-06-18 13:11:32","1","Columbia",NULL,"admin","admin"
"386","59","29","2015-06-18 13:11:46","2015-06-18 13:11:46","1","Nutrisnack",NULL,"admin","admin"
"387","22","66","2015-06-18 13:11:49","2015-06-18 13:11:49","1","Comfoods",NULL,"admin","admin"
"388","30","66","2015-06-18 13:12:08","2015-06-18 13:12:08","1","Delfi",NULL,"admin","admin"
"389","62","29","2015-06-18 13:12:11","2015-06-18 13:12:11","1","PepsiCo",NULL,"admin","admin"
"390","245","29","2015-06-18 13:12:32","2015-06-18 13:12:32","1","Baker's HIll",NULL,"admin","admin"
"391","142","66","2015-06-18 13:12:33","2015-06-18 13:12:33","1","Oleofats",NULL,"admin","admin"
"392","258","29","2015-06-18 13:12:46","2015-06-18 13:12:46","1","Mom Sue",NULL,"admin","admin"
"393","82","66","2015-06-18 13:12:55","2015-06-18 13:12:55","1","Transasia",NULL,"admin","admin"
"394","156","29","2015-06-18 13:13:21","2015-06-18 13:13:21","1","Regent",NULL,"admin","admin"
"395","66","59","2015-06-18 13:13:41","2015-06-18 13:13:41","1","Puratos",NULL,"admin","admin"
"396","61","29","2015-06-18 13:13:42","2015-06-18 13:13:42","1","Purple Oven",NULL,"admin","admin"
"397","13","30","2015-06-18 13:15:08","2015-06-18 13:15:08","1","Advance Food",NULL,"admin","admin"
"398","157","31","2015-06-18 13:16:37","2015-06-18 13:16:37","1","The Doughnut People",NULL,"admin","admin"
"399","183","31","2015-06-18 13:18:12","2015-06-18 13:18:12","1","Chef's Secret",NULL,"admin","admin"
"400","69","6","2015-06-18 13:19:36","2015-06-18 13:19:36","1","Renaissance",NULL,"admin","admin"
"401","157","32","2015-06-18 13:19:41","2015-06-18 13:19:41","1","The Doughnut People",NULL,"admin","admin"
"402","83","35","2015-06-18 13:21:01","2015-06-18 13:21:01","1","TJN Pasalubong",NULL,"admin","admin"
"403","38","32","2015-06-18 13:22:32","2015-06-18 13:22:32","1","Gardenia",NULL,"admin","admin"
"404","74","32","2015-06-18 13:22:47","2015-06-18 13:22:47","1","Sucere",NULL,"admin","admin"
"405","149","19","2015-06-18 13:23:21","2015-06-18 13:23:21","1","Hacienda Macalauan",NULL,"admin","admin"
"406","66","44","2015-06-18 13:23:45","2015-06-18 13:23:45","1","Puratos",NULL,"admin","admin"
"407","57","75","2015-06-18 13:24:08","2015-06-18 13:24:08","1","OMSI",NULL,"admin","admin"
"408","243","17","2015-06-18 13:25:18","2015-06-18 13:25:18","1","Gyllmarc",NULL,"admin","admin"
"409","142","9","2015-06-18 13:26:35","2015-06-18 13:26:35","1","Oleofats",NULL,"admin","admin"
"410","59","70","2015-06-18 13:28:09","2015-06-18 13:28:09","1","Nutrisnack",NULL,"admin","admin"
"411","57","70","2015-06-18 13:28:25","2015-06-18 13:28:25","1","OMSI",NULL,"admin","admin"
"412","146","70","2015-06-18 13:28:43","2015-06-18 13:28:43","1","Dan Eric's",NULL,"admin","admin"
"413","153","70","2015-06-18 13:29:09","2015-06-18 13:29:09","1","Phil Moringga",NULL,"admin","admin"
"414","199","79","2015-06-18 13:33:09","2015-06-18 13:33:09","1","Yakult",NULL,"admin","admin"
"415","142","11","2015-06-18 13:33:14","2015-06-18 13:33:14","1","Oleofats",NULL,"admin","admin"
"416","22","11","2015-06-18 13:34:01","2015-06-18 13:34:01","1","Comfoods",NULL,"admin","admin"
"417","72","73","2015-06-18 13:35:08","2015-06-18 13:35:08","1","RFM Milk & Juices",NULL,"admin","admin"
"418","199","80","2015-06-18 13:35:35","2015-06-18 13:35:35","1","Yakult",NULL,"admin","admin"
"419","30","78","2015-06-18 13:36:26","2015-06-18 13:36:26","1","Delfi",NULL,"admin","admin"
"420","285","76","2015-06-18 13:45:05","2015-06-18 13:45:05","1","The Confectionist, Inc.",NULL,"admin","admin"
"421","149","49","2015-06-18 13:46:26","2015-06-18 13:46:26","1","Hacienda Macalauan",NULL,"admin","admin"
"422","152","66","2015-06-18 13:47:39","2015-06-18 13:47:39","1","Markenburg In't",NULL,"admin","admin"
"423","241","3","2015-06-18 14:09:15","2015-06-18 14:09:15","1","Park Avenue Desserts",NULL,"admin","admin"
"424","243","9","2015-06-18 14:09:44","2015-06-18 14:09:44","1","Gyllmarc",NULL,"admin","admin"
"425","197","44","2015-06-18 14:20:04","2015-06-18 14:20:04","1","DLA",NULL,"admin","admin"
"426","223","11","2015-06-18 14:36:20","2015-06-18 14:36:20","1","Rachel's Sherbet",NULL,"admin","admin"
"427","146","67","2015-06-18 14:40:18","2015-06-18 14:40:18","1","Dan Eric's",NULL,"admin","admin"
"428","220","32","2015-06-19 14:07:46","2015-06-19 14:07:46","1","Everyday Freycheur",NULL,"admin","admin"
"429","13","67","2015-06-19 14:09:14","2015-06-19 14:09:14","1","Advance Food",NULL,"admin","admin"
"430","74","70","2015-06-19 14:10:00","2015-06-19 14:10:00","1","Sucere",NULL,"admin","admin"
"431","36","91","2015-07-06 16:05:29","2015-07-06 16:05:29","1","Goldilocks",NULL,"admin","admin"
"432","65","92","2016-02-03 04:06:19","2016-02-03 04:06:19","1",NULL,NULL,"admin","admin"
"433","75","93","2016-02-03 04:12:48","2016-02-03 04:12:48","1",NULL,NULL,"admin","admin"
"434","146","94","2016-02-03 04:15:45","2016-02-03 04:15:45","1",NULL,NULL,"admin","admin"
"435","146","95","2016-02-03 04:21:56","2016-02-03 04:21:56","1",NULL,NULL,"admin","admin"
"436","85","96","2016-02-09 08:49:02","2016-02-09 08:49:02","1",NULL,NULL,"admin","admin"
"437","51","96","2016-02-09 08:49:02","2016-02-09 08:49:02","1",NULL,NULL,"admin","admin"
"438","36","96","2016-02-09 08:49:02","2016-02-09 08:49:02","1",NULL,NULL,"admin","admin"
"439","118","97","2016-02-15 02:59:47","2016-02-15 02:59:47","1",NULL,NULL,"admin","admin"
"440","50","97","2016-02-15 02:59:47","2016-02-15 02:59:47","1",NULL,NULL,"admin","admin"
"441","69","97","2016-02-15 02:59:47","2016-02-15 02:59:47","1",NULL,NULL,"admin","admin"
"442","13","97","2016-02-15 02:59:47","2016-02-15 02:59:47","1",NULL,NULL,"admin","admin"
"443","59","97","2016-02-15 02:59:47","2016-02-15 02:59:47","1",NULL,NULL,"admin","admin"
"444","146","97","2016-02-15 02:59:47","2016-02-15 02:59:47","1",NULL,NULL,"admin","admin"
"445","76","97","2016-02-15 02:59:47","2016-02-15 02:59:47","1",NULL,NULL,"admin","admin"
"446","89","97","2016-02-15 02:59:47","2016-02-15 02:59:47","1",NULL,NULL,"admin","admin"
"447","38","97","2016-02-15 02:59:47","2016-02-15 02:59:47","1",NULL,NULL,"admin","admin"
"448","114","97","2016-02-15 02:59:47","2016-02-15 02:59:47","1",NULL,NULL,"admin","admin"
"449","46","97","2016-02-15 02:59:47","2016-02-15 02:59:47","1",NULL,NULL,"admin","admin"
"450","162","97","2016-02-15 02:59:47","2016-02-15 02:59:47","1",NULL,NULL,"admin","admin"
"451","22","97","2016-02-15 03:04:54","2016-02-15 03:04:54","1",NULL,NULL,"admin","admin"
"452","8","97","2016-02-15 03:49:41","2016-02-15 03:49:41","1",NULL,NULL,"racquel","racquel"
"453","59","98","2016-02-18 08:48:09","2016-02-18 08:48:09","1",NULL,NULL,"admin","admin"
"454","80","99","2016-02-23 06:58:19","2016-02-23 06:58:19","1",NULL,NULL,"admin","admin"
"455","36","100","2016-02-23 08:30:21","2016-02-23 08:30:21","1",NULL,NULL,"admin","admin"
"456","60","101","2016-02-23 09:10:13","2016-02-23 09:10:13","1",NULL,NULL,"admin","admin"
"457","19","101","2016-02-23 09:10:38","2016-02-23 09:10:38","1",NULL,NULL,"admin","admin"
"458","36","102","2016-02-24 04:14:38","2016-02-24 04:14:38","1",NULL,NULL,"admin","admin"
"459","118","103","2016-02-24 04:20:21","2016-02-24 04:20:21","1",NULL,NULL,"admin","admin"
"460","118","104","2016-02-24 04:24:56","2016-02-24 04:24:56","1",NULL,NULL,"admin","admin"
"461","118","105","2016-02-24 04:28:58","2016-02-24 04:28:58","1",NULL,NULL,"admin","admin"
"462","311","106","2016-02-26 05:49:26","2016-02-26 05:49:26","1",NULL,NULL,"admin","admin"
"463","28","107","2016-02-26 09:10:39","2016-02-26 09:10:39","1",NULL,NULL,"admin","admin"
"464","311","108","2016-02-29 10:44:20","2016-02-29 10:44:20","1",NULL,NULL,"admin","admin"
"465","36","109","2016-03-01 03:35:51","2016-03-01 03:35:51","1",NULL,NULL,"admin","admin"
"466","322","110","2016-03-01 04:01:28","2016-03-01 04:01:28","1",NULL,NULL,"admin","admin"
"467","52","111","2016-03-03 03:06:15","2016-03-03 03:06:15","1",NULL,NULL,"admin","admin"
"468","36","112","2016-03-03 03:42:12","2016-03-03 03:42:12","1",NULL,NULL,"admin","admin"
"469","36","113","2016-03-03 03:43:16","2016-03-03 03:43:16","1",NULL,NULL,"admin","admin"
"470","54","114","2016-03-03 04:57:33","2016-03-03 04:57:33","1",NULL,NULL,"admin","admin"
"471","7","115","2016-03-03 05:02:22","2016-03-03 05:02:22","1",NULL,NULL,"admin","admin"
"472","27","114","2016-03-03 05:04:47","2016-03-03 05:04:47","1",NULL,NULL,"admin","admin"
"473","25","116","2016-03-03 06:57:29","2016-03-03 06:57:29","1",NULL,NULL,"admin","admin"
"474","322","117","2016-03-03 08:19:08","2016-03-03 08:19:08","1",NULL,NULL,"admin","admin"
"475","323","97","2016-03-03 08:24:01","2016-03-03 08:24:01","1",NULL,NULL,"admin","admin"
"476","67","118","2016-03-04 03:10:27","2016-03-04 03:10:27","1",NULL,NULL,"admin","admin"
"477","146","119","2016-03-04 03:17:59","2016-03-04 03:17:59","1",NULL,NULL,"admin","admin"
"478","7","120","2016-03-07 07:24:34","2016-03-07 07:24:34","1",NULL,NULL,"admin","admin"
"479","144","120","2016-03-07 07:24:34","2016-03-07 07:24:34","1",NULL,NULL,"admin","admin"
"480","74","120","2016-03-07 07:24:34","2016-03-07 07:24:34","1",NULL,NULL,"admin","admin"
"481","38","121","2016-03-07 08:38:15","2016-03-07 08:38:15","1",NULL,NULL,"admin","admin"
"482","54","122","2016-03-08 03:58:25","2016-03-08 03:58:25","1",NULL,NULL,"admin","admin"
"483","52","123","2016-03-08 05:17:37","2016-03-08 05:17:37","1",NULL,NULL,"admin","admin"
"484","52","124","2016-03-08 05:18:24","2016-03-08 05:18:24","1",NULL,NULL,"admin","admin"
"485","52","125","2016-03-08 05:19:10","2016-03-08 05:19:10","1",NULL,NULL,"admin","admin"
"486","118","126","2016-03-08 05:41:23","2016-03-08 05:41:23","1",NULL,NULL,"admin","admin"
"487","118","127","2016-03-08 05:51:58","2016-03-08 05:51:58","1",NULL,NULL,"admin","admin"
"488","54","128","2016-03-08 05:56:38","2016-03-08 05:56:38","1",NULL,NULL,"admin","admin"
"489","54","129","2016-03-08 05:58:06","2016-03-08 05:58:06","1",NULL,NULL,"admin","admin"
"490","54","130","2016-03-08 06:00:07","2016-03-08 06:00:07","1",NULL,NULL,"admin","admin"
"491","54","131","2016-03-08 06:01:36","2016-03-08 06:01:36","1",NULL,NULL,"admin","admin"
"492","118","132","2016-03-08 06:03:00","2016-03-08 06:03:00","1",NULL,NULL,"admin","admin"
"493","86","133","2016-03-09 09:40:13","2016-03-09 09:40:13","1",NULL,NULL,"admin","admin"
"494","73","134","2016-03-15 03:27:04","2016-03-15 03:27:04","1",NULL,NULL,"admin","admin"
"495","142","135","2016-03-18 07:48:46","2016-03-18 07:48:46","1",NULL,NULL,"admin","admin"
"496","36","136","2016-03-29 12:38:17","2016-03-29 12:38:17","1",NULL,NULL,"admin","admin"
"497","36","137","2016-03-29 12:39:19","2016-03-29 12:39:19","1",NULL,NULL,"admin","admin"
"498","36","138","2016-03-29 12:40:18","2016-03-29 12:40:18","1",NULL,NULL,"admin","admin"
"499","36","139","2016-03-29 12:41:51","2016-03-29 12:41:51","1",NULL,NULL,"admin","admin"
"500","311","140","2016-04-04 08:10:00","2016-04-04 08:10:00","1",NULL,NULL,"admin","admin"
"501","38","141","2016-04-05 02:04:34","2016-04-05 02:04:34","1",NULL,NULL,"admin","admin"
"502","36","142","2016-04-06 04:18:04","2016-04-06 04:18:04","1",NULL,NULL,"admin","admin"
"503","36","143","2016-04-06 04:19:16","2016-04-06 04:19:16","1",NULL,NULL,"admin","admin"
"504","169","144","2016-04-13 09:55:36","2016-04-13 09:55:36","1",NULL,NULL,"admin","admin"
"505","36","145","2016-04-29 04:41:08","2016-04-29 04:41:08","1",NULL,NULL,"admin","admin"
"506","36","146","2016-04-29 04:43:38","2016-04-29 04:43:38","1",NULL,NULL,"admin","admin"
"507","36","147","2016-04-29 04:46:41","2016-04-29 04:46:41","1",NULL,NULL,"admin","admin"
"508","322","148","2016-04-29 07:23:20","2016-04-29 07:23:20","1",NULL,NULL,"admin","admin"
"509","36","149","2016-04-29 08:27:53","2016-04-29 08:27:53","1",NULL,NULL,"admin","admin"
"510","36","150","2016-04-29 08:28:55","2016-04-29 08:28:55","1",NULL,NULL,"admin","admin"
"511","67","151","2016-05-05 09:15:36","2016-05-05 09:15:36","1",NULL,NULL,"admin","admin"
"512","118","152","2016-05-10 04:09:45","2016-05-10 04:09:45","1",NULL,NULL,"admin","admin"
"513","36","153","2016-05-17 09:46:03","2016-05-17 09:46:03","1",NULL,NULL,"admin","admin"
"514","118","154","2016-05-23 08:02:30","2016-05-23 08:02:30","1",NULL,NULL,"admin","admin"
"515","36","155","2016-05-25 08:01:40","2016-05-25 08:01:40","1",NULL,NULL,"admin","admin"
"516","36","156","2016-05-27 06:51:45","2016-05-27 06:51:45","1",NULL,NULL,"admin","admin"
"517","142","157","2016-05-31 04:34:25","2016-05-31 04:34:25","1",NULL,NULL,"admin","admin"
"518","142","158","2016-06-08 11:11:39","2016-06-08 11:12:49","1",NULL,NULL,"admin","admin"
"519","38","159","2016-06-08 12:01:25","2016-06-08 12:01:25","1",NULL,NULL,"admin","admin"
"520","86","160","2016-06-27 07:48:08","2016-06-27 07:48:08","1",NULL,NULL,"admin","admin"
"521","86","161","2016-06-27 07:58:25","2016-06-27 07:58:25","1",NULL,NULL,"admin","admin"
"522","86","162","2016-06-27 08:22:18","2016-06-27 08:22:18","1",NULL,NULL,"admin","admin"
"523","76","163","2016-06-27 10:07:34","2016-06-27 10:07:34","1",NULL,NULL,"admin","admin"
"524","36","163","2016-06-27 10:07:34","2016-06-27 10:07:34","1",NULL,NULL,"admin","admin"
"525","52","164","2016-07-20 04:36:54","2016-07-20 04:36:54","1",NULL,NULL,"admin","admin"
"526","60","165","2016-07-30 06:03:41","2016-07-30 06:03:41","1",NULL,NULL,"admin","admin"
"527","142","166","2016-08-01 05:35:32","2016-08-01 05:35:32","1",NULL,NULL,"admin","admin"
"528","142","167","2016-08-01 05:37:40","2016-08-01 05:37:40","1",NULL,NULL,"admin","admin"
"529","86","168","2016-08-06 03:39:00","2016-08-06 03:39:00","1",NULL,NULL,"admin","admin"
"530","118","169","2016-08-09 10:26:26","2016-08-09 10:26:26","1",NULL,NULL,"vic","vic"
"531","118","170","2016-08-09 10:33:24","2016-08-09 10:33:24","1",NULL,NULL,"vic","vic"
"532","118","171","2016-08-09 10:51:56","2016-08-09 10:51:56","1",NULL,NULL,"vic","vic"
"533","118","172","2016-08-09 10:53:34","2016-08-09 10:53:34","1",NULL,NULL,"vic","vic"
"534","118","173","2016-08-09 10:55:28","2016-08-09 10:55:28","1",NULL,NULL,"vic","vic"
"535","118","174","2016-08-09 10:56:59","2016-08-09 10:56:59","1",NULL,NULL,"vic","vic"
"536","118","175","2016-08-09 11:00:11","2016-08-09 11:00:11","1",NULL,NULL,"vic","vic"
"537","118","176","2016-08-09 11:01:46","2016-08-09 11:01:46","1",NULL,NULL,"vic","vic"
"538","36","177","2016-08-15 10:51:27","2016-08-15 10:51:27","1",NULL,NULL,"vic","vic"
"539","313","178","2016-08-30 10:20:42","2016-08-30 10:20:42","1",NULL,NULL,"admin","admin"
"540","313","179","2016-08-30 10:23:58","2016-08-30 10:23:58","1",NULL,NULL,"admin","admin"
"541","313","180","2016-08-30 10:24:59","2016-08-30 10:24:59","1",NULL,NULL,"admin","admin"
"542","11","181","2016-09-29 05:15:35","2016-09-29 05:15:35","1",NULL,NULL,"admin","admin"
"543","63","182","2016-10-03 08:26:36","2016-10-03 08:26:36","1",NULL,NULL,"admin","admin"
"544","311","183","2016-10-06 04:20:45","2016-10-06 04:20:45","1",NULL,NULL,"admin","admin"
"545","80","184","2016-10-11 06:21:28","2016-10-11 06:21:28","1",NULL,NULL,"vic","vic"
"546","279","185","2016-10-11 06:22:19","2016-10-11 06:22:19","1",NULL,NULL,"geraldine","geraldine"
"547","36","186","2016-10-13 06:41:45","2016-10-13 06:41:45","1",NULL,NULL,"geraldine","geraldine"
"548","36","187","2016-10-28 08:20:00","2016-10-28 08:20:00","1",NULL,NULL,"geraldine","geraldine"
"549","36","188","2016-11-04 05:08:36","2016-11-04 05:08:36","1",NULL,NULL,"vic","vic"
"550","26","189","2016-11-11 04:55:16","2016-11-11 04:55:16","1",NULL,NULL,"admin","admin"
"551","36","190","2016-11-17 09:09:25","2016-11-17 09:09:25","1",NULL,NULL,"geraldine","geraldine"
"552","86","191","2016-11-28 09:21:32","2016-11-28 09:21:32","1",NULL,NULL,"vic","vic"
"553","387","192","2016-12-20 04:45:11","2016-12-20 04:45:11","1",NULL,NULL,"vic","vic"
"554","86","193","2017-01-10 06:47:03","2017-01-10 06:47:03","1",NULL,NULL,"vic","vic"
"555","86","194","2017-01-10 07:10:22","2017-01-10 07:10:22","1",NULL,NULL,"vic","vic"
"556","36","195","2017-02-02 10:43:34","2017-02-02 10:43:34","1",NULL,NULL,"admin","admin"
"557","199","195","2017-02-02 10:43:34","2017-02-02 10:43:34","1",NULL,NULL,"admin","admin"
"558","311","196","2017-02-14 02:15:16","2017-02-14 02:15:16","1",NULL,NULL,"admin","admin"
"559","399","197","2017-02-20 04:30:35","2017-02-20 04:30:35","1",NULL,NULL,"admin","admin"
"560","399","198","2017-02-20 04:32:17","2017-02-20 04:32:17","1",NULL,NULL,"admin","admin"
"561","399","199","2017-02-20 04:34:11","2017-02-20 04:34:11","1",NULL,NULL,"admin","admin"
"562","30","200","2017-03-03 04:27:25","2017-03-03 04:27:25","1",NULL,NULL,"admin","admin"
"563","52","201","2017-03-07 02:58:46","2017-03-07 02:58:46","1",NULL,NULL,"admin","admin"
"564","52","202","2017-03-07 03:04:52","2017-03-07 03:04:52","1",NULL,NULL,"admin","admin"
"565","52","203","2017-03-07 03:07:14","2017-03-07 03:07:14","1",NULL,NULL,"admin","admin"
"566","52","204","2017-03-07 03:08:33","2017-03-07 03:08:33","1",NULL,NULL,"admin","admin"
"567","52","205","2017-03-07 03:09:36","2017-03-07 03:09:36","1",NULL,NULL,"admin","admin"
"568","349","206","2017-03-10 02:20:19","2017-03-10 10:32:33","1",NULL,NULL,"admin","admin"
"569","88","207","2017-03-18 01:44:18","2017-03-18 01:44:18","1",NULL,NULL,"admin","admin"
"570","408","208","2017-04-11 03:42:23","2017-04-11 03:42:23","1",NULL,NULL,"geraldine","geraldine"
"571","51","209","2017-04-19 07:20:07","2017-04-19 07:20:07","1",NULL,NULL,"vic","vic"
"572","51","210","2017-04-19 07:21:30","2017-04-19 07:21:30","1",NULL,NULL,"vic","vic"
"573","11","211","2017-04-25 07:36:47","2017-04-25 07:36:47","1",NULL,NULL,"vic","vic"
"574","399","212","2017-04-26 02:32:45","2017-04-26 02:32:45","1",NULL,NULL,"admin","admin"
"575","408","213","2017-04-26 06:12:38","2017-04-26 06:12:38","1",NULL,NULL,"geraldine","geraldine"
"576","11","214","2017-05-11 17:01:19","2017-05-11 17:01:19","1",NULL,NULL,"vic","vic"
"577","32","215","2017-06-09 02:39:29","2017-06-09 02:39:29","1",NULL,NULL,"admin","admin"
